k-means try
…
cluster_summary_wide <- cluster_summary_long %>%
  select(-statistic) %>%        
  pivot_wider(
    names_from = cluster,        
    values_from = value,         
    names_prefix = "Cluster_"    
  )

print(cluster_summary_wide)

# A tibble: 110 × 4
   feature  Cluster_1 Cluster_2 Cluster_3
   <chr>        <dbl>     <dbl>     <dbl>
 1 ENERGYNF    2.39     0.846   -0.347   
 2 MOISTURE    0.0777  -0.0454   0.000471
 3 PROTEIN     3.40     0.479   -0.314   
 4 CHOWSA      0.777    0.919   -0.264   
 5 SUGARS     -0.0740   0.482   -0.117   
 6 FIBRE       1.06     0.694   -0.232   
 7 ALCOHOL    -0.101    0.00462 -0.000690
 8 PREVITA     0.0903   0.103   -0.0377  
 9 PROVITA     0.492    0.0932  -0.0582  
10 RETEQV      0.337    0.137   -0.0627  
# ℹ 100 more rows
